%YAML 1.1
%TAG !u! tag:unity3d.com,2011:
--- !u!21 &2100000
Material:
  serializedVersion: 6
  m_ObjectHideFlags: 0
  m_CorrespondingSourceObject: {fileID: 0}
  m_PrefabInstance: {fileID: 0}
  m_PrefabAsset: {fileID: 0}
  m_Name: GrassBase
  m_Shader: {fileID: 4800000, guid: 8aff16ae3adfb450b9d9c3f56aebad45, type: 3}
  m_ShaderKeywords: 
  m_LightmapFlags: 4
  m_EnableInstancingVariants: 0
  m_DoubleSidedGI: 0
  m_CustomRenderQueue: -1
  stringTagMap: {}
  disabledShaderPasses: []
  m_SavedProperties:
    serializedVersion: 3
    m_TexEnvs:
    - _MainTex:
        m_Texture: {fileID: 2800000, guid: 683a3adfb58cfa241b96782e7351ccb7, type: 3}
        m_Scale: {x: 1, y: 1}
        m_Offset: {x: 0, y: 0}
    m_Floats:
    - _WaterColorEnd: 2
    - _WaterColorMax: 2.4
    - _WaterColorStart: 0.17
    - _WaterPlane: 0
    m_Colors:
    - _Color: {r: 1, g: 1, b: 1, a: 1}
    - _UnderWaterColor: {r: 0, g: 0.827451, b: 1, a: 1}
  m_BuildTextureStacks: []
